%YAML 1.1
%TAG !u! tag:unity3d.com,2011:
--- !u!114 &11400000
MonoBehaviour:
  m_ObjectHideFlags: 0
  m_PrefabParentObject: {fileID: 0}
  m_PrefabInternal: {fileID: 0}
  m_GameObject: {fileID: 0}
  m_Enabled: 1
  m_EditorHideFlags: 0
  m_Script: {fileID: 11500000, guid: 9f3758f8f58fdef43803eb9be1df0608, type: 3}
  m_Name: PhotonServerSettings
  m_EditorClassIdentifier: 
  HostType: 1
  ServerAddress: app-us.exitgamescloud.com
  ServerPort: 5055
  AppID: f8717d1d-7e55-413a-a892-c64762b012f6
  PingCloudServersOnAwake: 1
  RpcList:
  - Marco
  - Polo
  - TaggedPlayer
  - SetPosition
  - Chat
  - InstantiateRpc
  - OnAwakeRPC
  - DestroyRpc
  - Network_DestroyWall
  - SetHP
  - Die
  - Damage
  - LayTile
  - Attack
  - SetTeamID
  - AddChatMessage_RPC
  - Heal
  - TakeDamage
  - Melee_Attack
  - HealFX
  - LifetapFX
  - BlinkFX
  - AddHealth
  - CastFX
  - ShapeshiftFX
  - FortifyFx
  - FortifyFX
  - TripleShot
  - EffectFX
  - DoubleShot
  - RepeatAttack
  - SpawnEnemy
  - Shapeshift
  - TriShot
  - MultiShot
  - StartSpawning
  - SwitchWeapon
  - CastBarkskin
  - MeteorFX
  - MeteorCastFX
  - EnemyAttack
  - CastMeteor
  - DestroyRPC
  - SetID
  - Cure_Light
  - Cast_CureLight
  - DeathFX
  - SetDamage
  - KnightAttackRPC
  - RangerAttackRPC
  - DruidAttackRPC
  - WizardAttackRPC
  - Cast_Cure
  - SpawnOgre
  - CastFireball
  - LayTemporaryBrokenWall
  - DamageObject
  - StunnedFX
  - CastConeOfCold
  - ConeOfColdFX
  - LocalCastingCircle
  - MoveTargetCircle
  - TargetCircle
  DisableAutoOpenWizard: 0
