%YAML 1.1
%TAG !u! tag:unity3d.com,2011:
--- !u!74 &7400000
AnimationClip:
  m_ObjectHideFlags: 0
  m_PrefabParentObject: {fileID: 0}
  m_PrefabInternal: {fileID: 0}
  m_Name: meteor
  serializedVersion: 4
  m_AnimationType: 2
  m_Compressed: 0
  m_UseHighQualityCurve: 1
  m_RotationCurves: []
  m_CompressedRotationCurves: []
  m_PositionCurves: []
  m_ScaleCurves:
  - curve:
      serializedVersion: 2
      m_Curve:
      - time: 0
        value: {x: 3, y: 3, z: 3}
        inSlope: {x: -2, y: -2, z: -2}
        outSlope: {x: -2, y: -2, z: -2}
        tangentMode: 0
      - time: 1
        value: {x: 1, y: 1, z: 1}
        inSlope: {x: -1, y: -1, z: -1}
        outSlope: {x: -1, y: -1, z: -1}
        tangentMode: 0
      - time: 1.10000002
        value: {x: 1, y: 1, z: 1}
        inSlope: {x: 0, y: 0, z: 0}
        outSlope: {x: 0, y: 0, z: 0}
        tangentMode: 0
      - time: 1.70000005
        value: {x: 1, y: 1, z: 1}
        inSlope: {x: 0, y: 0, z: 0}
        outSlope: {x: 0, y: 0, z: 0}
        tangentMode: 0
      m_PreInfinity: 2
      m_PostInfinity: 2
    path: 
  m_FloatCurves:
  - curve:
      serializedVersion: 2
      m_Curve:
      - time: 0
        value: 0
        inSlope: Infinity
        outSlope: Infinity
        tangentMode: 31
      - time: 1
        value: 1
        inSlope: Infinity
        outSlope: Infinity
        tangentMode: 31
      m_PreInfinity: 2
      m_PostInfinity: 2
    attribute: m_Enabled
    path: 
    classID: 58
    script: {fileID: 0}
  m_PPtrCurves:
  - curve:
    - time: 0
      value: {fileID: 21300180, guid: 0d70e166f211d3b4689af8a09310a617, type: 3}
    - time: .899999976
      value: {fileID: 21300180, guid: 0d70e166f211d3b4689af8a09310a617, type: 3}
    - time: 1
      value: {fileID: 21300368, guid: 0d70e166f211d3b4689af8a09310a617, type: 3}
    - time: 1.10000002
      value: {fileID: 21300346, guid: 0d70e166f211d3b4689af8a09310a617, type: 3}
    - time: 1.29999995
      value: {fileID: 21300370, guid: 0d70e166f211d3b4689af8a09310a617, type: 3}
    - time: 1.5
      value: {fileID: 21300348, guid: 0d70e166f211d3b4689af8a09310a617, type: 3}
    - time: 1.70000005
      value: {fileID: 21300374, guid: 0d70e166f211d3b4689af8a09310a617, type: 3}
    - time: 2
      value: {fileID: 21300374, guid: 0d70e166f211d3b4689af8a09310a617, type: 3}
    attribute: m_Sprite
    path: 
    classID: 212
    script: {fileID: 0}
  m_SampleRate: 10
  m_WrapMode: 0
  m_Bounds:
    m_Center: {x: 0, y: 0, z: 0}
    m_Extent: {x: 0, y: 0, z: 0}
  m_ClipBindingConstant:
    genericBindings:
    - path: 0
      attribute: 3
      script: {fileID: 0}
      classID: 4
      customType: 0
      isPPtrCurve: 0
    - path: 0
      attribute: 3305885265
      script: {fileID: 0}
      classID: 58
      customType: 0
      isPPtrCurve: 0
    - path: 0
      attribute: 0
      script: {fileID: 0}
      classID: 212
      customType: 23
      isPPtrCurve: 1
    pptrCurveMapping:
    - {fileID: 21300180, guid: 0d70e166f211d3b4689af8a09310a617, type: 3}
    - {fileID: 21300180, guid: 0d70e166f211d3b4689af8a09310a617, type: 3}
    - {fileID: 21300368, guid: 0d70e166f211d3b4689af8a09310a617, type: 3}
    - {fileID: 21300346, guid: 0d70e166f211d3b4689af8a09310a617, type: 3}
    - {fileID: 21300370, guid: 0d70e166f211d3b4689af8a09310a617, type: 3}
    - {fileID: 21300348, guid: 0d70e166f211d3b4689af8a09310a617, type: 3}
    - {fileID: 21300374, guid: 0d70e166f211d3b4689af8a09310a617, type: 3}
    - {fileID: 21300374, guid: 0d70e166f211d3b4689af8a09310a617, type: 3}
  m_AnimationClipSettings:
    serializedVersion: 2
    m_StartTime: 0
    m_StopTime: 2.0999999
    m_OrientationOffsetY: 0
    m_Level: 0
    m_CycleOffset: 0
    m_LoopTime: 0
    m_LoopBlend: 1
    m_LoopBlendOrientation: 0
    m_LoopBlendPositionY: 0
    m_LoopBlendPositionXZ: 0
    m_KeepOriginalOrientation: 1
    m_KeepOriginalPositionY: 1
    m_KeepOriginalPositionXZ: 1
    m_HeightFromFeet: 0
    m_Mirror: 0
  m_EditorCurves:
  - curve:
      serializedVersion: 2
      m_Curve:
      - time: 0
        value: 3
        inSlope: -2
        outSlope: -2
        tangentMode: 10
      - time: 1
        value: 1
        inSlope: -1
        outSlope: -1
        tangentMode: 10
      - time: 1.10000002
        value: 1
        inSlope: 0
        outSlope: 0
        tangentMode: 10
      - time: 1.70000005
        value: 1
        inSlope: 0
        outSlope: 0
        tangentMode: 10
      m_PreInfinity: 2
      m_PostInfinity: 2
    attribute: m_LocalScale.x
    path: 
    classID: 4
    script: {fileID: 0}
  - curve:
      serializedVersion: 2
      m_Curve:
      - time: 0
        value: 3
        inSlope: -2
        outSlope: -2
        tangentMode: 10
      - time: 1
        value: 1
        inSlope: -1
        outSlope: -1
        tangentMode: 10
      - time: 1.10000002
        value: 1
        inSlope: 0
        outSlope: 0
        tangentMode: 10
      - time: 1.70000005
        value: 1
        inSlope: 0
        outSlope: 0
        tangentMode: 10
      m_PreInfinity: 2
      m_PostInfinity: 2
    attribute: m_LocalScale.y
    path: 
    classID: 4
    script: {fileID: 0}
  - curve:
      serializedVersion: 2
      m_Curve:
      - time: 0
        value: 3
        inSlope: -2
        outSlope: -2
        tangentMode: 10
      - time: 1
        value: 1
        inSlope: -1
        outSlope: -1
        tangentMode: 10
      - time: 1.10000002
        value: 1
        inSlope: 0
        outSlope: 0
        tangentMode: 10
      - time: 1.70000005
        value: 1
        inSlope: 0
        outSlope: 0
        tangentMode: 10
      m_PreInfinity: 2
      m_PostInfinity: 2
    attribute: m_LocalScale.z
    path: 
    classID: 4
    script: {fileID: 0}
  - curve:
      serializedVersion: 2
      m_Curve:
      - time: 0
        value: 0
        inSlope: Infinity
        outSlope: Infinity
        tangentMode: 31
      - time: 1
        value: 1
        inSlope: Infinity
        outSlope: Infinity
        tangentMode: 31
      m_PreInfinity: 2
      m_PostInfinity: 2
    attribute: m_Enabled
    path: 
    classID: 58
    script: {fileID: 0}
  m_EulerEditorCurves: []
  m_Events: []
